{
  // Server authentication info
  "servers": [
    {
      "host": "128.199.229.191",
      "username": "root",
      "password": "w9UyNMccN86ZJAZB"
    }
  ],

  "setupMongo": true,

  "setupNode": true,

  "nodeVersion": "0.10.40",

  "setupPhantom": true,

  "enableUploadProgressBar": true,

  "appName": "ultrainvestors",

  "app": ".",

  // Configure environment
  "env": {
    "ROOT_URL": "http://ultrainvestors.info",
    "MONGO_URL": "mongodb://127.0.0.1:27017/ultrainvestors",
    "PORT": 3000
  },

  // Meteor Up checks if the app comes online just after the deployment
  // before mup checks that, it will wait for no. of seconds configured below
  "deployCheckWaitTime": 15
}
